[
    {
        "title": "Payments API",
        "path": "/specs/swagger-payments.json"
    },
    {
        "title": "Petstore Example",
        "path": "http://petstore.swagger.io/v2/swagger.json"
    },
    {
        "title": "Simple API",
        "path": "https://raw.githubusercontent.com/OAI/OpenAPI-Specification/master/examples/v2.0/json/api-with-examples.json"
    }
]